Jonathan A. Pedroza - Data Manipulation in R & Python
…
Code

library(tidyverse)
library(data.table)

r_data <- tibble(
  x = rnorm(n = 1000),
  x2 = rnorm(n = 1000, sd = 3),
  y = rbinom(n = 1000, size = 1, prob = .6)
)

print(r_data)

# A tibble: 1,000 × 3
         x     x2     y
     <dbl>  <dbl> <int>
 1  0.409   1.17      1
 2 -0.846  -3.77      1
 3  0.0941 -2.09      1
 4  0.322   1.16      1
 5 -1.39    1.35      0
 6  1.26    6.09      1
 7  0.423  -2.02      1
 8  0.631  -0.861     1
 9  0.710  -0.134     0
10  0.0307 -0.592     1
# ℹ 990 more rows
…
